
material _missing_material_
{
    receive_shadows off
    technique
    {
        pass
        {
            ambient 0.1 0.1 0.1 1.0
            diffuse 0.8 0.0 0.0 1.0
            specular 0.5 0.5 0.5 1.0 12.5
            emissive 0.3 0.3 0.3 1.0
        }
    }
}

// Barrier genrated by blender2ogre 0.6.0

material Barrier 
{
    receive_shadows on 

    technique
    {
        pass Barrier
        {
            ambient 0.800000011920929 0.800000011920929 0.800000011920929 1.0
            diffuse 0.240000013113022 0.240000013113022 0.240000013113022 1.0
            specular 0.0 0.0 0.0 1.0 12.5
            emissive 0.0 0.0 0.0 1.0

            alpha_to_coverage off
            colour_write on
            cull_hardware clockwise
            depth_check on
            depth_func less_equal
            depth_write on
            illumination_stage 
            light_clip_planes off
            light_scissor off
            lighting on
            normalise_normals off
            polygon_mode solid
            scene_blend one zero
            scene_blend_op add
            shading gouraud
            transparent_sorting on

            texture_unit 
            {
                texture textura-valla.png
                tex_address_mode wrap
                scale 1.0 1.0
                tex_coord_set 0
                colour_op modulate
            }
        }
    }
}
// Ground genrated by blender2ogre 0.6.0

material Ground 
{
    receive_shadows on 

    technique
    {
        pass Ground
        {
            ambient 0.800000011920929 0.800000011920929 0.800000011920929 1.0
            diffuse 0.6400000190734865 0.6400000190734865 0.6400000190734865 1.0
            specular 0.0 0.0 0.0 1.0 12.5
            emissive 0.0 0.0 0.0 1.0

            alpha_to_coverage off
            colour_write on
            cull_hardware clockwise
            depth_check on
            depth_func less_equal
            depth_write on
            illumination_stage 
            light_clip_planes off
            light_scissor off
            lighting on
            normalise_normals off
            polygon_mode solid
            scene_blend one zero
            scene_blend_op add
            shading gouraud
            transparent_sorting on

            texture_unit 
            {
                texture mud.jpg
                tex_address_mode wrap
                scale 1.0 1.0
                tex_coord_set 1
                colour_op modulate
            }
        }
    }
}
// Meta genrated by blender2ogre 0.6.0

material Meta 
{
    receive_shadows on 

    technique
    {
        pass Meta
        {
            ambient 0.800000011920929 0.800000011920929 0.800000011920929 1.0
            diffuse 0.6400000190734865 0.6400000190734865 0.6400000190734865 1.0
            specular 0.0 0.0 0.0 1.0 12.5
            emissive 0.0 0.0 0.0 1.0

            alpha_to_coverage off
            colour_write on
            cull_hardware clockwise
            depth_check on
            depth_func less_equal
            depth_write on
            illumination_stage 
            light_clip_planes off
            light_scissor off
            lighting on
            normalise_normals off
            polygon_mode solid
            scene_blend one zero
            scene_blend_op add
            shading gouraud
            transparent_sorting on

            texture_unit 
            {
                texture meta.jpg
                tex_address_mode wrap
                scale 1.0 1.0
                tex_coord_set 2
                colour_op modulate
            }
        }
    }
}
// transparent genrated by blender2ogre 0.6.0

material transparent 
{
    receive_shadows on 

    technique
    {
        pass transparent
        {
            ambient 0.800000011920929 0.800000011920929 0.800000011920929 0.0
            diffuse 0.0 0.0 0.0 0.0
            specular 0.0 0.0 0.0 0.0 12.5
            emissive 0.0 0.0 0.0 0.0

            alpha_to_coverage off
            colour_write on
            cull_hardware clockwise
            depth_check on
            depth_func less_equal
            depth_write on
            illumination_stage 
            light_clip_planes off
            light_scissor off
            lighting on
            normalise_normals off
            polygon_mode solid
            scene_blend one zero
            scene_blend_op add
            shading gouraud
            transparent_sorting on

        }
    }
}
